//-------------------------------------------------------------------------------------
// Loop & Music Free
// @2018 marching dream
// Version 1.1
// * This Asset is change name from "Loop !! Free Trial Version" to "Loop & Music Free" in version 1.1*
// * This Asset is rebuilding all files in version 1.1  *
//-------------------------------------------------------------------------------------

" Loop & Music Free " は、marching dream が制作する Ambient, Chiptune, Dance, Electoronic, Epic, Pops, Rock の音楽ジャンルのループ音源、リミックスおよびノン・ループ曲をまとめた無料トライアル版です。
このアセットには13ループ、3リミックス、そして14の曲が収録されています(ファイル形式はwav)。


13 Loop is
- Loop Ambient 01(3:39)
- Loop Ambient 08(5:02)
- Loop Chiptune 01(1:52)
- Loop Dance 01(2:56)
- Loop Dance 04(3:04)
- Loop Electronic 01(2:48)
- Loop Electronic 06(1:36)
- Loop Epic 01(2:48)
- Loop Epic 02(3:48)
- Loop Pops 01(2:24)
- Loop Pops 05(3:12)
- Loop Rock 01(3:36)
- Loop Rock 06(2:30) 


14 Music
- Music Ambient003(4:28)
- Music Ambient006(8:41) 
- Music Chiptune005(2:07)
- Music Chiptune007(4:02)
- Music Dance002(1:48)
- Music Dance006(3:52)
- Music Electronic001(3:37)
- Music Electronic007(3:47)
- Music Epic001(3:21)
- Music Epic007(5:39)
- Music Pops008(3:17)
- Music Pops017(3:30)
- Music Rock001(3:07)
- Music Rock010(5:19)
* これらの曲は全てイントロからアウトロまでを収録した完全な音源です。


3 Remixes of loop
- Loop Pops 01 Remix001(3:36)
- Loop Rock 01 Remix001(3:34)
- Loop Rock 01 Remix002(3:34)
* これらのリミックスはUnityのアセットをとても詳細にかつ丁寧な記事で紹介してくれるブログ"UnityAssetStoreまとめ"の3周年記念をお祝いして制作しました。
  UnityAssetStoreまとめ URL　http://www.asset-sale.net/
 

このアセットの音源を気に入ってくれたなら、これらの音源の他にも多くの音源を収録している有料版のアセットの購入を検討して頂けると幸いです。
Unity Asset Store における私達のパブリッシャー・ページは以下のURLです。 

https://assetstore.unity.com/publishers/26878

私達が制作するアセットがクリエイターの皆さんの作品のお役に立てることを願っています。


from marching dream




ぜひ公式サイトまたは公式SoundCloudにて他の音源もチェックしてみて下さい。

公式サイト
http://marchingdream.blog.jp

公式 Sound Cloud
https://soundcloud.com/marchingdream

公式 Allihoopa
https://allihoopa.com/marchingdream


// Version 1.1
// 1.1 - Change Asset Name & Files Rebuilding
//       & Add 26 New Sound Source(13 Loops & 3 Remix ,14 Music)